{
  "title": "Semi structured Interview",
  "icon": "receipt",
  "schema":
  {
    "$schema": "http://json-schema.org/draft-04/schema#",
    "type": "object",
    "title": "Newsletter Subscription",
    "description": "Sign up for free newsletters and get more delivered to your inbox",
    "properties": {
      "name": {
        "type": "string",
        "minLength": 8,
        "maxLength": 80,
        "title": "Full Name",
        "attrs": {
          "placeholder": "Your Full Name",
          "title": "Please enter your full name"
        }
      },
      "email": {
        "type": "string",
        "maxLength": 120,
        "title": "Email",
        "default": "demsking@gmail.com",
        "attrs": {
          "type": "email",
          "placeholder": "Your Email",
          "title": "Please enter your email"
        }
      },
      "lists": {
        "type": "string",
        "title": "List",
        "enum": ["Daily New", "Promotion"],
        "attrs": {
          "placeholder": "Select your list subscription",
          "title": "Please select your list subscription"
        }
      },
      "source": {
        "type": "string",
        "maxLength": 120,
        "title": "Source",
        "description": "Ex. Using the NPM Search Engine",
        "attrs": {
          "type": "textarea",
          "placeholder": "How did you hear about us?"
        }
      },
      "password": {
        "type": "string",
        "title": "password",
        "default": "hello",
        "attrs": {
          "type": "password"
        }
      },
      "aList": {
        "type": "array",
        "title": "Array field",
        "minItems": 2,
        "maxItems": 5,
        "items": {
          "type": "string"
        },
        "attrs": {
          "typeX": "password"
        }
      },
      "regex": {
        "type": "string",
        "title": "regex",
        "pattern": "[a-e]+"
      },
      "multipleCheckbox": {
        "type": "array",
        "title": "Checkboxes",
        "anyOf": [
          { "value": "daily", "label": "Daily News" },
          { "value": "promotion", "label": "Promotion" }
        ]
      },
      "groupedRadio": {
        "type": "array",
        "title": "Frequence",
        "oneOf": [
          { "value": "daily", "label": "Daily News" },
          { "value": "weekly", "label": "Weekly News" }
        ]
      },
      "agree": {
        "type": "boolean",
        "title": "Agree",
        "description": "You agree to receive occasional updates and special offers for vue-json-schema updates.",
        "default": false,
        "attrs": {
          "type": "checkbox"
        }
      }
    },
    "additionalProperties": false,
    "required": ["name", "email", "lists", "aList"]
  }
}



